module gitlab.com/bruno-nascimento-public/go_rest_api

go 1.22

require (
	github.com/getkin/kin-openapi v0.123.0
	github.com/gofiber/fiber/v2 v2.52.2
	github.com/oapi-codegen/fiber-middleware v1.0.1
	github.com/oapi-codegen/runtime v1.1.1
	github.com/sethvargo/go-envconfig v1.0.1
	github.com/stretchr/testify v1.8.4
)

require (
	github.com/andybalholm/brotli v1.0.5 // indirect
	github.com/apapsch/go-jsonmerge/v2 v2.0.0 // indirect
	github.com/davecgh/go-spew v1.1.1 // indirect
	github.com/go-openapi/jsonpointer v0.20.2 // indirect
	github.com/go-openapi/swag v0.22.8 // indirect
	github.com/google/uuid v1.5.0 // indirect
	github.com/gorilla/mux v1.8.1 // indirect
	github.com/invopop/yaml v0.2.0 // indirect
	github.com/josharian/intern v1.0.0 // indirect
	github.com/klauspost/compress v1.17.0 // indirect
	github.com/mailru/easyjson v0.7.7 // indirect
	github.com/mattn/go-colorable v0.1.13 // indirect
	github.com/mattn/go-isatty v0.0.20 // indirect
	github.com/mattn/go-runewidth v0.0.15 // indirect
	github.com/mohae/deepcopy v0.0.0-20170929034955-c48cc78d4826 // indirect
	github.com/perimeterx/marshmallow v1.1.5 // indirect
	github.com/pmezard/go-difflib v1.0.0 // indirect
	github.com/rivo/uniseg v0.4.4 // indirect
	github.com/valyala/bytebufferpool v1.0.0 // indirect
	github.com/valyala/fasthttp v1.51.0 // indirect
	github.com/valyala/tcplisten v1.0.0 // indirect
	golang.org/x/sys v0.15.0 // indirect
	gopkg.in/yaml.v3 v3.0.1 // indirect
)
